[
  {
    "name": "Book 1",
    "price": "14.99",
    "path": "https://www.rd.com/wp-content/uploads/2019/11/shutterstock_509582812-e1574100998595.jpg",
    "number": 0,
    "color": "black"
  },
  {
    "name": "Book 2",
    "price": "47.59",
    "path": "https://www.rd.com/wp-content/uploads/2019/11/shutterstock_509582812-e1574100998595.jpg",
    "number": 1,
    "color": "black"
  },
  {
    "name": "Book 3",
    "price": "8.99",
    "path": "https://www.rd.com/wp-content/uploads/2019/11/shutterstock_509582812-e1574100998595.jpg",
    "number": 2,
    "color": "black"
  },
  {
    "name": "Book 4",
    "price": "22.99",
    "path": "https://www.rd.com/wp-content/uploads/2019/11/shutterstock_509582812-e1574100998595.jpg",
    "number": 3,
    "color": "black"
  },
  {
    "name": "Book 5",
    "price": "24.99",
    "path": "https://www.rd.com/wp-content/uploads/2019/11/shutterstock_509582812-e1574100998595.jpg",
    "number": 4,
    "color": "black"
  },
  {
    "name": "Book 6",
    "price": "17.99",
    "path": "https://www.rd.com/wp-content/uploads/2019/11/shutterstock_509582812-e1574100998595.jpg",
    "number": 5,
    "color": "black"
  },
  {
    "name": "Book 7",
    "price": "27.59",
    "path": "https://www.rd.com/wp-content/uploads/2019/11/shutterstock_509582812-e1574100998595.jpg",
    "number": 6,
    "color": "black"
  },
  {
    "name": "Book 8",
    "price": "38.99",
    "path": "https://www.rd.com/wp-content/uploads/2019/11/shutterstock_509582812-e1574100998595.jpg",
    "number": 7,
    "color": "black"
  },
  {
    "name": "Book 9",
    "price": "22.99",
    "path": "https://www.rd.com/wp-content/uploads/2019/11/shutterstock_509582812-e1574100998595.jpg",
    "number": 8,
    "color": "black"
  },
  {
    "name": "Book 10",
    "price": "16.99",
    "path": "https://www.rd.com/wp-content/uploads/2019/11/shutterstock_509582812-e1574100998595.jpg",
    "number": 9,
    "color": "black"
  }
]
